{
    "multipart": [
        {   "apply": { "model": "cablenetwork:block/simplepipe0/cable"}},
        {   "when": { "north": "true" },
            "apply": { "model": "cablenetwork:block/simplepipe0/cable_south", "y":180 }
        },
        {   "when": { "east": "true" },
            "apply": { "model": "cablenetwork:block/simplepipe0/cable_south", "y": 270 }
        },
        {   "when": { "south": "true" },
            "apply": { "model": "cablenetwork:block/simplepipe0/cable_south"}
        },
        {   "when": { "west": "true" },
            "apply": { "model": "cablenetwork:block/simplepipe0/cable_south", "y": 90 }
        },
        {   "when": { "up": "true" },
            "apply": { "model": "cablenetwork:block/simplepipe0/cable_south", "x": 90 }
        },
        {   "when": { "down": "true" },
            "apply": { "model": "cablenetwork:block/simplepipe0/cable_south", "x": 270 }
        }
    ]
}
